{
  "project_info": {
    "project_number": "300719137741",
    "project_id": "examenkotlin11042024",
    "storage_bucket": "examenkotlin11042024.appspot.com"
  },
  "client": [
    {
      "client_info": {
        "mobilesdk_app_id": "1:300719137741:android:2a4456280037240edd1a84",
        "android_client_info": {
          "package_name": "com.example.myapplication"
        }
      },
      "oauth_client": [
        {
          "client_id": "300719137741-trq34c6hc6q915po7jmlq7jdgegqodrf.apps.googleusercontent.com",
          "client_type": 3
        }
      ],
      "api_key": [
        {
          "current_key": "AIzaSyDtBk_ILke5IBcfjWpQaymc0iSBX8Yfb6A"
        }
      ],
      "services": {
        "appinvite_service": {
          "other_platform_oauth_client": [
            {
              "client_id": "300719137741-trq34c6hc6q915po7jmlq7jdgegqodrf.apps.googleusercontent.com",
              "client_type": 3
            }
          ]
        }
      }
    }
  ],
  "configuration_version": "1"
}